…
``` r
# Average monthly price across provinces
Price_data <- Price_data %>%
  group_by(Date) %>%
  summarise(avg_price_canada = mean(Price_per_MTonne, na.rm=TRUE)) %>%
  mutate(Months=row_number(),
         Year=year(Date),
         Quarter=quarter(Date)) %>%
  ungroup()

print(Price_data)
```

```
## # A tibble: 287 x 5
##    Date       avg_price_canada Months  Year Quarter
##    <date>                <dbl>  <int> <dbl>   <int>
##  1 2002-01-01             209.      1  2002       1
##  2 2002-02-01             211.      2  2002       1
##  3 2002-03-01             212.      3  2002       1
##  4 2002-04-01             204.      4  2002       2
##  5 2002-05-01             209.      5  2002       2
##  6 2002-06-01             214.      6  2002       2
##  7 2002-07-01             226.      7  2002       3
##  8 2002-08-01             226.      8  2002       3
##  9 2002-09-01             228.      9  2002       3
## 10 2002-10-01             239.     10  2002       4
## # i 277 more rows
```
…
``` r
# Another aggregation (already aggregated, this does nothing harmful)
Price_data <- Price_data %>%
  group_by(Date) %>%
  summarise(avg_price_canada=mean(avg_price_canada, na.rm=TRUE)) %>%
  ungroup()

print(Price_data)
```

```
## # A tibble: 287 x 2
##    Date       avg_price_canada
##    <date>                <dbl>
##  1 2002-01-01             209.
##  2 2002-02-01             211.
##  3 2002-03-01             212.
##  4 2002-04-01             204.
##  5 2002-05-01             209.
##  6 2002-06-01             214.
##  7 2002-07-01             226.
##  8 2002-08-01             226.
##  9 2002-09-01             228.
## 10 2002-10-01             239.
## # i 277 more rows
```
…
```
## L'objet suivant est masqué depuis 'package:dplyr':
## 
##     combine
```

``` r
print(Price_data)
```

```
## # A tibble: 287 x 2
##    Date       avg_price_canada
##    <date>                <dbl>
##  1 2002-01-01             209.
##  2 2002-02-01             211.
##  3 2002-03-01             212.
##  4 2002-04-01             204.
##  5 2002-05-01             209.
##  6 2002-06-01             214.
##  7 2002-07-01             226.
##  8 2002-08-01             226.
##  9 2002-09-01             228.
## 10 2002-10-01             239.
## # i 277 more rows
```
…
